<?xml version='1.0' encoding='utf-8'?>
<svg xmlns:xlink="http://www.w3.org/1999/xlink" class="pygal-chart" height="400" id="chart-f37da6ca-50bf-4a63-95cb-baf9a2195b12" viewBox="0 0 800 400" width="800" xmlns="http://www.w3.org/2000/svg"><!--Generated with pygal 2.3.1 (etree) ©Kozea 2012-2016 on 2016-12-14--><!--http://pygal.org--><!--http://github.com/Kozea/pygal--><defs><style type="text/css">#chart-f37da6ca-50bf-4a63-95cb-baf9a2195b12{-webkit-user-select:none;-webkit-font-smoothing:antialiased;font-family:Consolas,"Liberation Mono",Menlo,Courier,monospace}#chart-f37da6ca-50bf-4a63-95cb-baf9a2195b12 .title{font-family:Consolas,"Liberation Mono",Menlo,Courier,monospace;font-size:16px}#chart-f37da6ca-50bf-4a63-95cb-baf9a2195b12 .legends .legend text{font-family:Consolas,"Liberation Mono",Menlo,Courier,monospace;font-size:14px}#chart-f37da6ca-50bf-4a63-95cb-baf9a2195b12 .axis text{font-family:Consolas,"Liberation Mono",Menlo,Courier,monospace;font-size:10px}#chart-f37da6ca-50bf-4a63-95cb-baf9a2195b12 .axis text.major{font-family:Consolas,"Liberation Mono",Menlo,Courier,monospace;font-size:10px}#chart-f37da6ca-50bf-4a63-95cb-baf9a2195b12 .text-overlay text.value{font-family:Consolas,"Liberation Mono",Menlo,Courier,monospace;font-size:16px}#chart-f37da6ca-50bf-4a63-95cb-baf9a2195b12 .text-overlay text.label{font-family:Consolas,"Liberation Mono",Menlo,Courier,monospace;font-size:10px}#chart-f37da6ca-50bf-4a63-95cb-baf9a2195b12 .tooltip{font-family:Consolas,"Liberation Mono",Menlo,Courier,monospace;font-size:14px}#chart-f37da6ca-50bf-4a63-95cb-baf9a2195b12 text.no_data{font-family:Consolas,"Liberation Mono",Menlo,Courier,monospace;font-size:64px}
#chart-f37da6ca-50bf-4a63-95cb-baf9a2195b12{background-color:rgba(249,249,249,1)}#chart-f37da6ca-50bf-4a63-95cb-baf9a2195b12 path,#chart-f37da6ca-50bf-4a63-95cb-baf9a2195b12 line,#chart-f37da6ca-50bf-4a63-95cb-baf9a2195b12 rect,#chart-f37da6ca-50bf-4a63-95cb-baf9a2195b12 circle{-webkit-transition:150ms;-moz-transition:150ms;transition:150ms}#chart-f37da6ca-50bf-4a63-95cb-baf9a2195b12 .graph &gt; .background{fill:rgba(249,249,249,1)}#chart-f37da6ca-50bf-4a63-95cb-baf9a2195b12 .plot &gt; .background{fill:rgba(255,255,255,1)}#chart-f37da6ca-50bf-4a63-95cb-baf9a2195b12 .graph{fill:rgba(0,0,0,.87)}#chart-f37da6ca-50bf-4a63-95cb-baf9a2195b12 text.no_data{fill:rgba(0,0,0,1)}#chart-f37da6ca-50bf-4a63-95cb-baf9a2195b12 .title{fill:rgba(0,0,0,1)}#chart-f37da6ca-50bf-4a63-95cb-baf9a2195b12 .legends .legend text{fill:rgba(0,0,0,.87)}#chart-f37da6ca-50bf-4a63-95cb-baf9a2195b12 .legends .legend:hover text{fill:rgba(0,0,0,1)}#chart-f37da6ca-50bf-4a63-95cb-baf9a2195b12 .axis .line{stroke:rgba(0,0,0,1)}#chart-f37da6ca-50bf-4a63-95cb-baf9a2195b12 .axis .guide.line{stroke:rgba(0,0,0,.54)}#chart-f37da6ca-50bf-4a63-95cb-baf9a2195b12 .axis .major.line{stroke:rgba(0,0,0,.87)}#chart-f37da6ca-50bf-4a63-95cb-baf9a2195b12 .axis text.major{fill:rgba(0,0,0,1)}#chart-f37da6ca-50bf-4a63-95cb-baf9a2195b12 .axis.y .guides:hover .guide.line,#chart-f37da6ca-50bf-4a63-95cb-baf9a2195b12 .line-graph .axis.x .guides:hover .guide.line,#chart-f37da6ca-50bf-4a63-95cb-baf9a2195b12 .stackedline-graph .axis.x .guides:hover .guide.line,#chart-f37da6ca-50bf-4a63-95cb-baf9a2195b12 .xy-graph .axis.x .guides:hover .guide.line{stroke:rgba(0,0,0,1)}#chart-f37da6ca-50bf-4a63-95cb-baf9a2195b12 .axis .guides:hover text{fill:rgba(0,0,0,1)}#chart-f37da6ca-50bf-4a63-95cb-baf9a2195b12 .reactive{fill-opacity:.7;stroke-opacity:.8}#chart-f37da6ca-50bf-4a63-95cb-baf9a2195b12 .ci{stroke:rgba(0,0,0,.87)}#chart-f37da6ca-50bf-4a63-95cb-baf9a2195b12 .reactive.active,#chart-f37da6ca-50bf-4a63-95cb-baf9a2195b12 .active .reactive{fill-opacity:.8;stroke-opacity:.9;stroke-width:4}#chart-f37da6ca-50bf-4a63-95cb-baf9a2195b12 .ci .reactive.active{stroke-width:1.5}#chart-f37da6ca-50bf-4a63-95cb-baf9a2195b12 .series text{fill:rgba(0,0,0,1)}#chart-f37da6ca-50bf-4a63-95cb-baf9a2195b12 .tooltip rect{fill:rgba(255,255,255,1);stroke:rgba(0,0,0,1);-webkit-transition:opacity 150ms;-moz-transition:opacity 150ms;transition:opacity 150ms}#chart-f37da6ca-50bf-4a63-95cb-baf9a2195b12 .tooltip .label{fill:rgba(0,0,0,.87)}#chart-f37da6ca-50bf-4a63-95cb-baf9a2195b12 .tooltip .label{fill:rgba(0,0,0,.87)}#chart-f37da6ca-50bf-4a63-95cb-baf9a2195b12 .tooltip .legend{font-size:.8em;fill:rgba(0,0,0,.54)}#chart-f37da6ca-50bf-4a63-95cb-baf9a2195b12 .tooltip .x_label{font-size:.6em;fill:rgba(0,0,0,1)}#chart-f37da6ca-50bf-4a63-95cb-baf9a2195b12 .tooltip .xlink{font-size:.5em;text-decoration:underline}#chart-f37da6ca-50bf-4a63-95cb-baf9a2195b12 .tooltip .value{font-size:1.5em}#chart-f37da6ca-50bf-4a63-95cb-baf9a2195b12 .bound{font-size:.5em}#chart-f37da6ca-50bf-4a63-95cb-baf9a2195b12 .max-value{font-size:.75em;fill:rgba(0,0,0,.54)}#chart-f37da6ca-50bf-4a63-95cb-baf9a2195b12 .map-element{fill:rgba(255,255,255,1);stroke:rgba(0,0,0,.54) !important}#chart-f37da6ca-50bf-4a63-95cb-baf9a2195b12 .map-element .reactive{fill-opacity:inherit;stroke-opacity:inherit}#chart-f37da6ca-50bf-4a63-95cb-baf9a2195b12 .color-0,#chart-f37da6ca-50bf-4a63-95cb-baf9a2195b12 .color-0 a:visited{stroke:#F44336;fill:#F44336}#chart-f37da6ca-50bf-4a63-95cb-baf9a2195b12 .color-1,#chart-f37da6ca-50bf-4a63-95cb-baf9a2195b12 .color-1 a:visited{stroke:#3F51B5;fill:#3F51B5}#chart-f37da6ca-50bf-4a63-95cb-baf9a2195b12 .color-2,#chart-f37da6ca-50bf-4a63-95cb-baf9a2195b12 .color-2 a:visited{stroke:#009688;fill:#009688}#chart-f37da6ca-50bf-4a63-95cb-baf9a2195b12 .color-3,#chart-f37da6ca-50bf-4a63-95cb-baf9a2195b12 .color-3 a:visited{stroke:#FFC107;fill:#FFC107}#chart-f37da6ca-50bf-4a63-95cb-baf9a2195b12 .color-4,#chart-f37da6ca-50bf-4a63-95cb-baf9a2195b12 .color-4 a:visited{stroke:#FF5722;fill:#FF5722}#chart-f37da6ca-50bf-4a63-95cb-baf9a2195b12 .color-5,#chart-f37da6ca-50bf-4a63-95cb-baf9a2195b12 .color-5 a:visited{stroke:#9C27B0;fill:#9C27B0}#chart-f37da6ca-50bf-4a63-95cb-baf9a2195b12 .color-6,#chart-f37da6ca-50bf-4a63-95cb-baf9a2195b12 .color-6 a:visited{stroke:#03A9F4;fill:#03A9F4}#chart-f37da6ca-50bf-4a63-95cb-baf9a2195b12 .text-overlay .color-0 text{fill:black}#chart-f37da6ca-50bf-4a63-95cb-baf9a2195b12 .text-overlay .color-1 text{fill:black}#chart-f37da6ca-50bf-4a63-95cb-baf9a2195b12 .text-overlay .color-2 text{fill:black}#chart-f37da6ca-50bf-4a63-95cb-baf9a2195b12 .text-overlay .color-3 text{fill:black}#chart-f37da6ca-50bf-4a63-95cb-baf9a2195b12 .text-overlay .color-4 text{fill:black}#chart-f37da6ca-50bf-4a63-95cb-baf9a2195b12 .text-overlay .color-5 text{fill:black}#chart-f37da6ca-50bf-4a63-95cb-baf9a2195b12 .text-overlay .color-6 text{fill:black}
#chart-f37da6ca-50bf-4a63-95cb-baf9a2195b12 text.no_data{text-anchor:middle}#chart-f37da6ca-50bf-4a63-95cb-baf9a2195b12 .guide.line{fill:none}#chart-f37da6ca-50bf-4a63-95cb-baf9a2195b12 .centered{text-anchor:middle}#chart-f37da6ca-50bf-4a63-95cb-baf9a2195b12 .title{text-anchor:middle}#chart-f37da6ca-50bf-4a63-95cb-baf9a2195b12 .legends .legend text{fill-opacity:1}#chart-f37da6ca-50bf-4a63-95cb-baf9a2195b12 .axis.x text{text-anchor:middle}#chart-f37da6ca-50bf-4a63-95cb-baf9a2195b12 .axis.x:not(.web) text[transform]{text-anchor:start}#chart-f37da6ca-50bf-4a63-95cb-baf9a2195b12 .axis.x:not(.web) text[transform].backwards{text-anchor:end}#chart-f37da6ca-50bf-4a63-95cb-baf9a2195b12 .axis.y text{text-anchor:end}#chart-f37da6ca-50bf-4a63-95cb-baf9a2195b12 .axis.y text[transform].backwards{text-anchor:start}#chart-f37da6ca-50bf-4a63-95cb-baf9a2195b12 .axis.y2 text{text-anchor:start}#chart-f37da6ca-50bf-4a63-95cb-baf9a2195b12 .axis.y2 text[transform].backwards{text-anchor:end}#chart-f37da6ca-50bf-4a63-95cb-baf9a2195b12 .axis .guide.line{stroke-dasharray:4,4}#chart-f37da6ca-50bf-4a63-95cb-baf9a2195b12 .axis .major.guide.line{stroke-dasharray:6,6}#chart-f37da6ca-50bf-4a63-95cb-baf9a2195b12 .horizontal .axis.y .guide.line,#chart-f37da6ca-50bf-4a63-95cb-baf9a2195b12 .horizontal .axis.y2 .guide.line,#chart-f37da6ca-50bf-4a63-95cb-baf9a2195b12 .vertical .axis.x .guide.line{opacity:0}#chart-f37da6ca-50bf-4a63-95cb-baf9a2195b12 .horizontal .axis.always_show .guide.line,#chart-f37da6ca-50bf-4a63-95cb-baf9a2195b12 .vertical .axis.always_show .guide.line{opacity:1 !important}#chart-f37da6ca-50bf-4a63-95cb-baf9a2195b12 .axis.y .guides:hover .guide.line,#chart-f37da6ca-50bf-4a63-95cb-baf9a2195b12 .axis.y2 .guides:hover .guide.line,#chart-f37da6ca-50bf-4a63-95cb-baf9a2195b12 .axis.x .guides:hover .guide.line{opacity:1}#chart-f37da6ca-50bf-4a63-95cb-baf9a2195b12 .axis .guides:hover text{opacity:1}#chart-f37da6ca-50bf-4a63-95cb-baf9a2195b12 .nofill{fill:none}#chart-f37da6ca-50bf-4a63-95cb-baf9a2195b12 .subtle-fill{fill-opacity:.2}#chart-f37da6ca-50bf-4a63-95cb-baf9a2195b12 .dot{stroke-width:1px;fill-opacity:1}#chart-f37da6ca-50bf-4a63-95cb-baf9a2195b12 .dot.active{stroke-width:5px}#chart-f37da6ca-50bf-4a63-95cb-baf9a2195b12 .dot.negative{fill:transparent}#chart-f37da6ca-50bf-4a63-95cb-baf9a2195b12 text,#chart-f37da6ca-50bf-4a63-95cb-baf9a2195b12 tspan{stroke:none !important}#chart-f37da6ca-50bf-4a63-95cb-baf9a2195b12 .series text.active{opacity:1}#chart-f37da6ca-50bf-4a63-95cb-baf9a2195b12 .tooltip rect{fill-opacity:.95;stroke-width:.5}#chart-f37da6ca-50bf-4a63-95cb-baf9a2195b12 .tooltip text{fill-opacity:1}#chart-f37da6ca-50bf-4a63-95cb-baf9a2195b12 .showable{visibility:hidden}#chart-f37da6ca-50bf-4a63-95cb-baf9a2195b12 .showable.shown{visibility:visible}#chart-f37da6ca-50bf-4a63-95cb-baf9a2195b12 .gauge-background{fill:rgba(229,229,229,1);stroke:none}#chart-f37da6ca-50bf-4a63-95cb-baf9a2195b12 .bg-lines{stroke:rgba(249,249,249,1);stroke-width:2px}</style><script type="text/javascript">window.pygal = window.pygal || {};window.pygal.config = window.pygal.config || {};window.pygal.config['f37da6ca-50bf-4a63-95cb-baf9a2195b12'] = {"truncate_legend": null, "explicit_size": true, "classes": ["pygal-chart"], "secondary_range": null, "stroke": true, "legends": ["direct", "direct_def", "simple_arg", "def", "kwargs_def", "kwargs", "kwargs_inv"], "show_y_labels": true, "x_labels_major": null, "y_label_rotation": 0, "interpolate": null, "formatter": null, "show_dots": true, "zero": 0, "x_label_rotation": 0, "inner_radius": 0, "min_scale": 4, "show_x_labels": true, "legend_at_bottom_columns": null, "legend_box_size": 12, "strict": false, "css": ["file://style.css", "file://graph.css"], "x_labels_major_every": null, "stack_from_top": false, "box_mode": "extremes", "xrange": null, "dynamic_print_values": false, "tooltip_fancy_mode": true, "max_scale": 16, "title": null, "width": 800, "no_prefix": false, "rounded_bars": null, "x_labels_major_count": null, "y_title": null, "pretty_print": false, "half_pie": false, "margin_top": null, "print_labels": false, "allow_interruptions": false, "logarithmic": false, "print_values_position": "center", "legend_at_bottom": false, "defs": [], "y_labels": null, "show_x_guides": false, "disable_xml_declaration": false, "spacing": 10, "margin_bottom": null, "show_legend": true, "y_labels_major_count": null, "tooltip_border_radius": 0, "include_x_axis": false, "interpolation_precision": 250, "show_minor_y_labels": true, "print_values": false, "force_uri_protocol": "https", "margin": 20, "x_title": "1000000 iterations", "dots_size": 2.5, "stroke_style": null, "height": 400, "range": null, "y_labels_major_every": null, "inverse_y_axis": false, "js": ["//kozea.github.io/pygal.js/2.0.x/pygal-tooltips.min.js"], "no_data_text": "No data", "margin_left": null, "truncate_label": null, "print_zeroes": true, "show_minor_x_labels": true, "fill": false, "interpolation_parameters": {}, "x_labels": null, "margin_right": null, "show_only_major_dots": false, "y_labels_major": null, "show_y_guides": true, "style": {"colors": ["#F44336", "#3F51B5", "#009688", "#FFC107", "#FF5722", "#9C27B0", "#03A9F4", "#8BC34A", "#FF9800", "#E91E63", "#2196F3", "#4CAF50", "#FFEB3B", "#673AB7", "#00BCD4", "#CDDC39", "#9E9E9E", "#607D8B"], "value_background": "rgba(229, 229, 229, 1)", "title_font_family": "Consolas, \"Liberation Mono\", Menlo, Courier, monospace", "tooltip_font_size": 14, "legend_font_size": 14, "stroke_opacity": ".8", "value_colors": [], "value_font_family": "Consolas, \"Liberation Mono\", Menlo, Courier, monospace", "foreground": "rgba(0, 0, 0, .87)", "opacity_hover": ".8", "major_guide_stroke_dasharray": "6,6", "major_label_font_family": "Consolas, \"Liberation Mono\", Menlo, Courier, monospace", "foreground_strong": "rgba(0, 0, 0, 1)", "label_font_size": 10, "no_data_font_size": 64, "opacity": ".7", "value_font_size": 16, "major_label_font_size": 10, "label_font_family": "Consolas, \"Liberation Mono\", Menlo, Courier, monospace", "transition": "150ms", "legend_font_family": "Consolas, \"Liberation Mono\", Menlo, Courier, monospace", "background": "rgba(249, 249, 249, 1)", "tooltip_font_family": "Consolas, \"Liberation Mono\", Menlo, Courier, monospace", "value_label_font_size": 10, "stroke_opacity_hover": ".9", "no_data_font_family": "Consolas, \"Liberation Mono\", Menlo, Courier, monospace", "font_family": "Consolas, \"Liberation Mono\", Menlo, Courier, monospace", "value_label_font_family": "Consolas, \"Liberation Mono\", Menlo, Courier, monospace", "foreground_subtle": "rgba(0, 0, 0, .54)", "plot_background": "rgba(255, 255, 255, 1)", "title_font_size": 16, "ci_colors": [], "guide_stroke_dasharray": "4,4"}, "order_min": null, "missing_value_fill_truncation": "x"}</script><script type="text/javascript" xlink:href="https://kozea.github.io/pygal.js/2.0.x/pygal-tooltips.min.js" /></defs><title>Pygal</title><g class="graph horizontalbar-graph horizontal"><rect class="background" height="400" width="800" x="0" y="0" /><g class="plot" transform="translate(126, 20)"><rect class="background" height="314" width="654.0" x="0" y="0" /><g class="axis x"><g class="guides"><path class="axis major line" d="M12.576923 0.000000 v314.000000" /><text class="major" x="12.576923076923078" y="329.0">0</text></g><g class="guides"><path class="guide line" d="M61.965587 0.000000 v314.000000" /><text class="" x="61.965587482393644" y="329.0">0.02</text></g><g class="guides"><path class="guide line" d="M111.354252 0.000000 v314.000000" /><text class="" x="111.3542518878642" y="329.0">0.04</text></g><g class="guides"><path class="guide line" d="M160.742916 0.000000 v314.000000" /><text class="" x="160.74291629333473" y="329.0">0.06</text></g><g class="guides"><path class="guide line" d="M210.131581 0.000000 v314.000000" /><text class="" x="210.13158069880532" y="329.0">0.08</text></g><g class="guides"><path class="guide line" d="M259.520245 0.000000 v314.000000" /><text class="" x="259.5202451042759" y="329.0">0.1</text></g><g class="guides"><path class="guide line" d="M308.908910 0.000000 v314.000000" /><text class="" x="308.9089095097464" y="329.0">0.12</text></g><g class="guides"><path class="guide line" d="M358.297574 0.000000 v314.000000" /><text class="" x="358.297573915217" y="329.0">0.14</text></g><g class="guides"><path class="guide line" d="M407.686238 0.000000 v314.000000" /><text class="" x="407.68623832068755" y="329.0">0.16</text></g><g class="guides"><path class="guide line" d="M457.074903 0.000000 v314.000000" /><text class="" x="457.0749027261581" y="329.0">0.18</text></g><g class="guides"><path class="guide line" d="M506.463567 0.000000 v314.000000" /><text class="" x="506.4635671316287" y="329.0">0.2</text></g><g class="guides"><path class="guide line" d="M555.852232 0.000000 v314.000000" /><text class="" x="555.8522315370992" y="329.0">0.22</text></g><g class="guides"><path class="guide line" d="M605.240896 0.000000 v314.000000" /><text class="" x="605.2408959425698" y="329.0">0.24</text></g></g><g class="series serie-6 color-6"><g class="bars"><g class="bar"><rect class="rect reactive tooltip-trigger" height="33.401318681318685" rx="0" ry="0" width="628.8461538461538" x="12.576923076923094" y="254.1674725274725" /><desc class="value">0.2546520184</desc><desc class="x centered">327.0</desc><desc class="y centered">270.86813186813185</desc></g></g></g><g class="series serie-5 color-5"><g class="bars"><g class="bar"><rect class="rect reactive tooltip-trigger" height="33.401318681318685" rx="0" ry="0" width="553.5974336261995" x="12.576923076923094" y="216.2114285714285" /><desc class="value">0.2241799572</desc><desc class="x centered">289.37563989002285</desc><desc class="y centered">232.91208791208786</desc></g></g></g><g class="series serie-4 color-4"><g class="bars"><g class="bar"><rect class="rect reactive tooltip-trigger" height="33.401318681318685" rx="0" ry="0" width="497.3559085670637" x="12.576923076923094" y="178.25538461538457" /><desc class="value">0.2014048829</desc><desc class="x centered">261.25487736045494</desc><desc class="y centered">194.9560439560439</desc></g></g></g><g class="series serie-3 color-3"><g class="bars"><g class="bar"><rect class="rect reactive tooltip-trigger" height="33.401318681318685" rx="0" ry="0" width="478.50843956112675" x="12.576923076923094" y="140.29934065934063" /><desc class="value">0.1937725773</desc><desc class="x centered">251.83114285748647</desc><desc class="y centered">156.99999999999997</desc></g></g></g><g class="series serie-2 color-2"><g class="bars"><g class="bar"><rect class="rect reactive tooltip-trigger" height="33.401318681318685" rx="0" ry="0" width="457.98838344640876" x="12.576923076923094" y="102.34329670329666" /><desc class="value">0.1854629555</desc><desc class="x centered">241.57111480012748</desc><desc class="y centered">119.043956043956</desc></g></g></g><g class="series serie-1 color-1"><g class="bars"><g class="bar"><rect class="rect reactive tooltip-trigger" height="33.401318681318685" rx="0" ry="0" width="435.0346277842267" x="12.576923076923094" y="64.38725274725269" /><desc class="value">0.1761678041</desc><desc class="x centered">230.09423696903644</desc><desc class="y centered">81.08791208791203</desc></g></g></g><g class="series serie-0 color-0"><g class="bars"><g class="bar"><rect class="rect reactive tooltip-trigger" height="33.401318681318685" rx="0" ry="0" width="404.03099692407335" x="12.576923076923094" y="26.431208791208753" /><desc class="value">0.1636128459</desc><desc class="x centered">214.59242153895977</desc><desc class="y centered">43.131868131868096</desc></g></g></g></g><g class="titles"><text class="title" x="453.0" y="380">1000000 iterations</text></g><g class="plot overlay" transform="translate(126, 20)"><g class="series serie-6 color-6" /><g class="series serie-5 color-5" /><g class="series serie-4 color-4" /><g class="series serie-3 color-3" /><g class="series serie-2 color-2" /><g class="series serie-1 color-1" /><g class="series serie-0 color-0" /></g><g class="plot text-overlay" transform="translate(126, 20)"><g class="series serie-6 color-6" /><g class="series serie-5 color-5" /><g class="series serie-4 color-4" /><g class="series serie-3 color-3" /><g class="series serie-2 color-2" /><g class="series serie-1 color-1" /><g class="series serie-0 color-0" /></g><g class="plot tooltip-overlay" transform="translate(126, 20)"><g class="tooltip" style="opacity: 0" transform="translate(0 0)"><rect class="tooltip-box" height="0" rx="0" ry="0" width="0" /><g class="text" /></g></g><g class="legends" transform="translate(10, 30)"><g class="legend reactive activate-serie" id="activate-serie-0"><rect class="color-0 reactive" height="12" width="12" x="0.0" y="1.0" /><text x="17.0" y="11.2">direct</text></g><g class="legend reactive activate-serie" id="activate-serie-1"><rect class="color-1 reactive" height="12" width="12" x="0.0" y="22.0" /><text x="17.0" y="32.2">direct_def</text></g><g class="legend reactive activate-serie" id="activate-serie-2"><rect class="color-2 reactive" height="12" width="12" x="0.0" y="43.0" /><text x="17.0" y="53.2">simple_arg</text></g><g class="legend reactive activate-serie" id="activate-serie-3"><rect class="color-3 reactive" height="12" width="12" x="0.0" y="64.0" /><text x="17.0" y="74.2">def</text></g><g class="legend reactive activate-serie" id="activate-serie-4"><rect class="color-4 reactive" height="12" width="12" x="0.0" y="85.0" /><text x="17.0" y="95.2">kwargs_def</text></g><g class="legend reactive activate-serie" id="activate-serie-5"><rect class="color-5 reactive" height="12" width="12" x="0.0" y="106.0" /><text x="17.0" y="116.2">kwargs</text></g><g class="legend reactive activate-serie" id="activate-serie-6"><rect class="color-6 reactive" height="12" width="12" x="0.0" y="127.0" /><text x="17.0" y="137.2">kwargs_inv</text></g></g><g class="legends" transform="translate(790, 30)" /></g></svg>