<?xml version='1.0' encoding='utf-8'?>
<svg xmlns:xlink="http://www.w3.org/1999/xlink" class="pygal-chart" height="400" id="chart-a69935a0-d416-4c29-891d-fe4b07c5c3c9" viewBox="0 0 800 400" width="800" xmlns="http://www.w3.org/2000/svg"><!--Generated with pygal 2.3.1 (etree) ©Kozea 2012-2016 on 2016-12-14--><!--http://pygal.org--><!--http://github.com/Kozea/pygal--><defs><style type="text/css">#chart-a69935a0-d416-4c29-891d-fe4b07c5c3c9{-webkit-user-select:none;-webkit-font-smoothing:antialiased;font-family:Consolas,"Liberation Mono",Menlo,Courier,monospace}#chart-a69935a0-d416-4c29-891d-fe4b07c5c3c9 .title{font-family:Consolas,"Liberation Mono",Menlo,Courier,monospace;font-size:16px}#chart-a69935a0-d416-4c29-891d-fe4b07c5c3c9 .legends .legend text{font-family:Consolas,"Liberation Mono",Menlo,Courier,monospace;font-size:14px}#chart-a69935a0-d416-4c29-891d-fe4b07c5c3c9 .axis text{font-family:Consolas,"Liberation Mono",Menlo,Courier,monospace;font-size:10px}#chart-a69935a0-d416-4c29-891d-fe4b07c5c3c9 .axis text.major{font-family:Consolas,"Liberation Mono",Menlo,Courier,monospace;font-size:10px}#chart-a69935a0-d416-4c29-891d-fe4b07c5c3c9 .text-overlay text.value{font-family:Consolas,"Liberation Mono",Menlo,Courier,monospace;font-size:16px}#chart-a69935a0-d416-4c29-891d-fe4b07c5c3c9 .text-overlay text.label{font-family:Consolas,"Liberation Mono",Menlo,Courier,monospace;font-size:10px}#chart-a69935a0-d416-4c29-891d-fe4b07c5c3c9 .tooltip{font-family:Consolas,"Liberation Mono",Menlo,Courier,monospace;font-size:14px}#chart-a69935a0-d416-4c29-891d-fe4b07c5c3c9 text.no_data{font-family:Consolas,"Liberation Mono",Menlo,Courier,monospace;font-size:64px}
#chart-a69935a0-d416-4c29-891d-fe4b07c5c3c9{background-color:rgba(249,249,249,1)}#chart-a69935a0-d416-4c29-891d-fe4b07c5c3c9 path,#chart-a69935a0-d416-4c29-891d-fe4b07c5c3c9 line,#chart-a69935a0-d416-4c29-891d-fe4b07c5c3c9 rect,#chart-a69935a0-d416-4c29-891d-fe4b07c5c3c9 circle{-webkit-transition:150ms;-moz-transition:150ms;transition:150ms}#chart-a69935a0-d416-4c29-891d-fe4b07c5c3c9 .graph &gt; .background{fill:rgba(249,249,249,1)}#chart-a69935a0-d416-4c29-891d-fe4b07c5c3c9 .plot &gt; .background{fill:rgba(255,255,255,1)}#chart-a69935a0-d416-4c29-891d-fe4b07c5c3c9 .graph{fill:rgba(0,0,0,.87)}#chart-a69935a0-d416-4c29-891d-fe4b07c5c3c9 text.no_data{fill:rgba(0,0,0,1)}#chart-a69935a0-d416-4c29-891d-fe4b07c5c3c9 .title{fill:rgba(0,0,0,1)}#chart-a69935a0-d416-4c29-891d-fe4b07c5c3c9 .legends .legend text{fill:rgba(0,0,0,.87)}#chart-a69935a0-d416-4c29-891d-fe4b07c5c3c9 .legends .legend:hover text{fill:rgba(0,0,0,1)}#chart-a69935a0-d416-4c29-891d-fe4b07c5c3c9 .axis .line{stroke:rgba(0,0,0,1)}#chart-a69935a0-d416-4c29-891d-fe4b07c5c3c9 .axis .guide.line{stroke:rgba(0,0,0,.54)}#chart-a69935a0-d416-4c29-891d-fe4b07c5c3c9 .axis .major.line{stroke:rgba(0,0,0,.87)}#chart-a69935a0-d416-4c29-891d-fe4b07c5c3c9 .axis text.major{fill:rgba(0,0,0,1)}#chart-a69935a0-d416-4c29-891d-fe4b07c5c3c9 .axis.y .guides:hover .guide.line,#chart-a69935a0-d416-4c29-891d-fe4b07c5c3c9 .line-graph .axis.x .guides:hover .guide.line,#chart-a69935a0-d416-4c29-891d-fe4b07c5c3c9 .stackedline-graph .axis.x .guides:hover .guide.line,#chart-a69935a0-d416-4c29-891d-fe4b07c5c3c9 .xy-graph .axis.x .guides:hover .guide.line{stroke:rgba(0,0,0,1)}#chart-a69935a0-d416-4c29-891d-fe4b07c5c3c9 .axis .guides:hover text{fill:rgba(0,0,0,1)}#chart-a69935a0-d416-4c29-891d-fe4b07c5c3c9 .reactive{fill-opacity:.7;stroke-opacity:.8}#chart-a69935a0-d416-4c29-891d-fe4b07c5c3c9 .ci{stroke:rgba(0,0,0,.87)}#chart-a69935a0-d416-4c29-891d-fe4b07c5c3c9 .reactive.active,#chart-a69935a0-d416-4c29-891d-fe4b07c5c3c9 .active .reactive{fill-opacity:.8;stroke-opacity:.9;stroke-width:4}#chart-a69935a0-d416-4c29-891d-fe4b07c5c3c9 .ci .reactive.active{stroke-width:1.5}#chart-a69935a0-d416-4c29-891d-fe4b07c5c3c9 .series text{fill:rgba(0,0,0,1)}#chart-a69935a0-d416-4c29-891d-fe4b07c5c3c9 .tooltip rect{fill:rgba(255,255,255,1);stroke:rgba(0,0,0,1);-webkit-transition:opacity 150ms;-moz-transition:opacity 150ms;transition:opacity 150ms}#chart-a69935a0-d416-4c29-891d-fe4b07c5c3c9 .tooltip .label{fill:rgba(0,0,0,.87)}#chart-a69935a0-d416-4c29-891d-fe4b07c5c3c9 .tooltip .label{fill:rgba(0,0,0,.87)}#chart-a69935a0-d416-4c29-891d-fe4b07c5c3c9 .tooltip .legend{font-size:.8em;fill:rgba(0,0,0,.54)}#chart-a69935a0-d416-4c29-891d-fe4b07c5c3c9 .tooltip .x_label{font-size:.6em;fill:rgba(0,0,0,1)}#chart-a69935a0-d416-4c29-891d-fe4b07c5c3c9 .tooltip .xlink{font-size:.5em;text-decoration:underline}#chart-a69935a0-d416-4c29-891d-fe4b07c5c3c9 .tooltip .value{font-size:1.5em}#chart-a69935a0-d416-4c29-891d-fe4b07c5c3c9 .bound{font-size:.5em}#chart-a69935a0-d416-4c29-891d-fe4b07c5c3c9 .max-value{font-size:.75em;fill:rgba(0,0,0,.54)}#chart-a69935a0-d416-4c29-891d-fe4b07c5c3c9 .map-element{fill:rgba(255,255,255,1);stroke:rgba(0,0,0,.54) !important}#chart-a69935a0-d416-4c29-891d-fe4b07c5c3c9 .map-element .reactive{fill-opacity:inherit;stroke-opacity:inherit}#chart-a69935a0-d416-4c29-891d-fe4b07c5c3c9 .color-0,#chart-a69935a0-d416-4c29-891d-fe4b07c5c3c9 .color-0 a:visited{stroke:#F44336;fill:#F44336}#chart-a69935a0-d416-4c29-891d-fe4b07c5c3c9 .color-1,#chart-a69935a0-d416-4c29-891d-fe4b07c5c3c9 .color-1 a:visited{stroke:#3F51B5;fill:#3F51B5}#chart-a69935a0-d416-4c29-891d-fe4b07c5c3c9 .color-2,#chart-a69935a0-d416-4c29-891d-fe4b07c5c3c9 .color-2 a:visited{stroke:#009688;fill:#009688}#chart-a69935a0-d416-4c29-891d-fe4b07c5c3c9 .color-3,#chart-a69935a0-d416-4c29-891d-fe4b07c5c3c9 .color-3 a:visited{stroke:#FFC107;fill:#FFC107}#chart-a69935a0-d416-4c29-891d-fe4b07c5c3c9 .color-4,#chart-a69935a0-d416-4c29-891d-fe4b07c5c3c9 .color-4 a:visited{stroke:#FF5722;fill:#FF5722}#chart-a69935a0-d416-4c29-891d-fe4b07c5c3c9 .color-5,#chart-a69935a0-d416-4c29-891d-fe4b07c5c3c9 .color-5 a:visited{stroke:#9C27B0;fill:#9C27B0}#chart-a69935a0-d416-4c29-891d-fe4b07c5c3c9 .text-overlay .color-0 text{fill:black}#chart-a69935a0-d416-4c29-891d-fe4b07c5c3c9 .text-overlay .color-1 text{fill:black}#chart-a69935a0-d416-4c29-891d-fe4b07c5c3c9 .text-overlay .color-2 text{fill:black}#chart-a69935a0-d416-4c29-891d-fe4b07c5c3c9 .text-overlay .color-3 text{fill:black}#chart-a69935a0-d416-4c29-891d-fe4b07c5c3c9 .text-overlay .color-4 text{fill:black}#chart-a69935a0-d416-4c29-891d-fe4b07c5c3c9 .text-overlay .color-5 text{fill:black}
#chart-a69935a0-d416-4c29-891d-fe4b07c5c3c9 text.no_data{text-anchor:middle}#chart-a69935a0-d416-4c29-891d-fe4b07c5c3c9 .guide.line{fill:none}#chart-a69935a0-d416-4c29-891d-fe4b07c5c3c9 .centered{text-anchor:middle}#chart-a69935a0-d416-4c29-891d-fe4b07c5c3c9 .title{text-anchor:middle}#chart-a69935a0-d416-4c29-891d-fe4b07c5c3c9 .legends .legend text{fill-opacity:1}#chart-a69935a0-d416-4c29-891d-fe4b07c5c3c9 .axis.x text{text-anchor:middle}#chart-a69935a0-d416-4c29-891d-fe4b07c5c3c9 .axis.x:not(.web) text[transform]{text-anchor:start}#chart-a69935a0-d416-4c29-891d-fe4b07c5c3c9 .axis.x:not(.web) text[transform].backwards{text-anchor:end}#chart-a69935a0-d416-4c29-891d-fe4b07c5c3c9 .axis.y text{text-anchor:end}#chart-a69935a0-d416-4c29-891d-fe4b07c5c3c9 .axis.y text[transform].backwards{text-anchor:start}#chart-a69935a0-d416-4c29-891d-fe4b07c5c3c9 .axis.y2 text{text-anchor:start}#chart-a69935a0-d416-4c29-891d-fe4b07c5c3c9 .axis.y2 text[transform].backwards{text-anchor:end}#chart-a69935a0-d416-4c29-891d-fe4b07c5c3c9 .axis .guide.line{stroke-dasharray:4,4}#chart-a69935a0-d416-4c29-891d-fe4b07c5c3c9 .axis .major.guide.line{stroke-dasharray:6,6}#chart-a69935a0-d416-4c29-891d-fe4b07c5c3c9 .horizontal .axis.y .guide.line,#chart-a69935a0-d416-4c29-891d-fe4b07c5c3c9 .horizontal .axis.y2 .guide.line,#chart-a69935a0-d416-4c29-891d-fe4b07c5c3c9 .vertical .axis.x .guide.line{opacity:0}#chart-a69935a0-d416-4c29-891d-fe4b07c5c3c9 .horizontal .axis.always_show .guide.line,#chart-a69935a0-d416-4c29-891d-fe4b07c5c3c9 .vertical .axis.always_show .guide.line{opacity:1 !important}#chart-a69935a0-d416-4c29-891d-fe4b07c5c3c9 .axis.y .guides:hover .guide.line,#chart-a69935a0-d416-4c29-891d-fe4b07c5c3c9 .axis.y2 .guides:hover .guide.line,#chart-a69935a0-d416-4c29-891d-fe4b07c5c3c9 .axis.x .guides:hover .guide.line{opacity:1}#chart-a69935a0-d416-4c29-891d-fe4b07c5c3c9 .axis .guides:hover text{opacity:1}#chart-a69935a0-d416-4c29-891d-fe4b07c5c3c9 .nofill{fill:none}#chart-a69935a0-d416-4c29-891d-fe4b07c5c3c9 .subtle-fill{fill-opacity:.2}#chart-a69935a0-d416-4c29-891d-fe4b07c5c3c9 .dot{stroke-width:1px;fill-opacity:1}#chart-a69935a0-d416-4c29-891d-fe4b07c5c3c9 .dot.active{stroke-width:5px}#chart-a69935a0-d416-4c29-891d-fe4b07c5c3c9 .dot.negative{fill:transparent}#chart-a69935a0-d416-4c29-891d-fe4b07c5c3c9 text,#chart-a69935a0-d416-4c29-891d-fe4b07c5c3c9 tspan{stroke:none !important}#chart-a69935a0-d416-4c29-891d-fe4b07c5c3c9 .series text.active{opacity:1}#chart-a69935a0-d416-4c29-891d-fe4b07c5c3c9 .tooltip rect{fill-opacity:.95;stroke-width:.5}#chart-a69935a0-d416-4c29-891d-fe4b07c5c3c9 .tooltip text{fill-opacity:1}#chart-a69935a0-d416-4c29-891d-fe4b07c5c3c9 .showable{visibility:hidden}#chart-a69935a0-d416-4c29-891d-fe4b07c5c3c9 .showable.shown{visibility:visible}#chart-a69935a0-d416-4c29-891d-fe4b07c5c3c9 .gauge-background{fill:rgba(229,229,229,1);stroke:none}#chart-a69935a0-d416-4c29-891d-fe4b07c5c3c9 .bg-lines{stroke:rgba(249,249,249,1);stroke-width:2px}</style><script type="text/javascript">window.pygal = window.pygal || {};window.pygal.config = window.pygal.config || {};window.pygal.config['a69935a0-d416-4c29-891d-fe4b07c5c3c9'] = {"interpolation_parameters": {}, "legend_box_size": 12, "secondary_range": null, "stroke_style": null, "show_only_major_dots": false, "tooltip_border_radius": 0, "dots_size": 2.5, "inverse_y_axis": false, "pretty_print": false, "css": ["file://style.css", "file://graph.css"], "zero": 0, "y_labels": null, "width": 800, "show_legend": true, "classes": ["pygal-chart"], "no_data_text": "No data", "tooltip_fancy_mode": true, "print_values_position": "center", "margin_bottom": null, "interpolate": null, "logarithmic": false, "spacing": 10, "order_min": null, "height": 400, "show_dots": true, "interpolation_precision": 250, "legend_at_bottom": false, "strict": false, "y_labels_major_every": null, "fill": false, "x_labels_major": null, "x_labels_major_every": null, "y_labels_major_count": null, "box_mode": "extremes", "print_zeroes": true, "stroke": true, "show_y_guides": true, "allow_interruptions": false, "half_pie": false, "y_title": null, "inner_radius": 0, "dynamic_print_values": false, "formatter": null, "x_title": "1000000 iterations", "print_values": true, "x_labels_major_count": null, "y_labels_major": null, "js": ["//kozea.github.io/pygal.js/2.0.x/pygal-tooltips.min.js"], "truncate_label": null, "range": null, "defs": [], "title": null, "rounded_bars": null, "show_x_guides": false, "truncate_legend": null, "print_labels": false, "margin_right": null, "y_label_rotation": 0, "no_prefix": false, "explicit_size": true, "stack_from_top": false, "margin_left": null, "force_uri_protocol": "https", "min_scale": 4, "style": {"value_background": "rgba(229, 229, 229, 1)", "label_font_size": 10, "transition": "150ms", "value_label_font_family": "Consolas, \"Liberation Mono\", Menlo, Courier, monospace", "foreground": "rgba(0, 0, 0, .87)", "background": "rgba(249, 249, 249, 1)", "major_guide_stroke_dasharray": "6,6", "font_family": "Consolas, \"Liberation Mono\", Menlo, Courier, monospace", "colors": ["#F44336", "#3F51B5", "#009688", "#FFC107", "#FF5722", "#9C27B0", "#03A9F4", "#8BC34A", "#FF9800", "#E91E63", "#2196F3", "#4CAF50", "#FFEB3B", "#673AB7", "#00BCD4", "#CDDC39", "#9E9E9E", "#607D8B"], "label_font_family": "Consolas, \"Liberation Mono\", Menlo, Courier, monospace", "value_label_font_size": 10, "tooltip_font_family": "Consolas, \"Liberation Mono\", Menlo, Courier, monospace", "legend_font_size": 14, "no_data_font_family": "Consolas, \"Liberation Mono\", Menlo, Courier, monospace", "opacity_hover": ".8", "title_font_size": 16, "value_font_size": 16, "plot_background": "rgba(255, 255, 255, 1)", "stroke_opacity": ".8", "ci_colors": [], "value_colors": [], "title_font_family": "Consolas, \"Liberation Mono\", Menlo, Courier, monospace", "tooltip_font_size": 14, "major_label_font_family": "Consolas, \"Liberation Mono\", Menlo, Courier, monospace", "foreground_subtle": "rgba(0, 0, 0, .54)", "value_font_family": "Consolas, \"Liberation Mono\", Menlo, Courier, monospace", "foreground_strong": "rgba(0, 0, 0, 1)", "stroke_opacity_hover": ".9", "major_label_font_size": 10, "guide_stroke_dasharray": "4,4", "legend_font_family": "Consolas, \"Liberation Mono\", Menlo, Courier, monospace", "no_data_font_size": 64, "opacity": ".7"}, "show_x_labels": true, "xrange": null, "max_scale": 16, "legend_at_bottom_columns": null, "disable_xml_declaration": false, "x_label_rotation": 0, "show_y_labels": true, "show_minor_x_labels": true, "missing_value_fill_truncation": "x", "margin": 20, "x_labels": null, "show_minor_y_labels": true, "legends": ["default", "direct", "direct_default_2", "mixed", "kwargs", "direct_default"], "margin_top": null, "include_x_axis": false}</script><script type="text/javascript" xlink:href="https://kozea.github.io/pygal.js/2.0.x/pygal-tooltips.min.js" /></defs><title>Pygal</title><g class="graph horizontalbar-graph horizontal"><rect class="background" height="400" width="800" x="0" y="0" /><g class="plot" transform="translate(168, 20)"><rect class="background" height="314" width="612.0" x="0" y="0" /><g class="axis x"><g class="guides"><path class="axis major line" d="M11.769231 0.000000 v314.000000" /><text class="major" x="11.769230769230772" y="329.0">0</text></g><g class="guides"><path class="guide line" d="M62.528106 0.000000 v314.000000" /><text class="" x="62.52810603381822" y="329.0">0.02</text></g><g class="guides"><path class="guide line" d="M113.286981 0.000000 v314.000000" /><text class="" x="113.28698129840568" y="329.0">0.04</text></g><g class="guides"><path class="guide line" d="M164.045857 0.000000 v314.000000" /><text class="" x="164.04585656299312" y="329.0">0.06</text></g><g class="guides"><path class="guide line" d="M214.804732 0.000000 v314.000000" /><text class="" x="214.80473182758058" y="329.0">0.08</text></g><g class="guides"><path class="guide line" d="M265.563607 0.000000 v314.000000" /><text class="" x="265.56360709216807" y="329.0">0.1</text></g><g class="guides"><path class="guide line" d="M316.322482 0.000000 v314.000000" /><text class="" x="316.3224823567555" y="329.0">0.12</text></g><g class="guides"><path class="guide line" d="M367.081358 0.000000 v314.000000" /><text class="" x="367.08135762134293" y="329.0">0.14</text></g><g class="guides"><path class="guide line" d="M417.840233 0.000000 v314.000000" /><text class="" x="417.84023288593033" y="329.0">0.16</text></g><g class="guides"><path class="guide line" d="M468.599108 0.000000 v314.000000" /><text class="" x="468.5991081505178" y="329.0">0.18</text></g><g class="guides"><path class="guide line" d="M519.357983 0.000000 v314.000000" /><text class="" x="519.3579834151053" y="329.0">0.2</text></g><g class="guides"><path class="guide line" d="M570.116859 0.000000 v314.000000" /><text class="" x="570.1168586796928" y="329.0">0.22</text></g></g><g class="series serie-5 color-5"><g class="bars"><g class="bar"><rect class="rect reactive tooltip-trigger" height="38.96820512820513" rx="0" ry="0" width="588.4615384615386" x="11.769230769230717" y="248.22102564102562" /><desc class="value">0.2318654759</desc><desc class="x centered">306.0</desc><desc class="y centered">267.7051282051282</desc></g></g></g><g class="series serie-4 color-4"><g class="bars"><g class="bar"><rect class="rect reactive tooltip-trigger" height="38.96820512820513" rx="0" ry="0" width="551.1366383311488" x="11.769230769230717" y="203.93897435897435" /><desc class="value">0.2171587276</desc><desc class="x centered">287.3375499348051</desc><desc class="y centered">223.4230769230769</desc></g></g></g><g class="series serie-3 color-3"><g class="bars"><g class="bar"><rect class="rect reactive tooltip-trigger" height="38.96820512820513" rx="0" ry="0" width="467.50819529603285" x="11.769230769230774" y="159.65692307692308" /><desc class="value">0.1842074683</desc><desc class="x centered">245.5233284172472</desc><desc class="y centered">179.14102564102564</desc></g></g></g><g class="series serie-2 color-2"><g class="bars"><g class="bar"><rect class="rect reactive tooltip-trigger" height="38.96820512820513" rx="0" ry="0" width="465.6092243113728" x="11.769230769230774" y="115.37487179487177" /><desc class="value">0.1834592362</desc><desc class="x centered">244.5738429249172</desc><desc class="y centered">134.85897435897434</desc></g></g></g><g class="series serie-1 color-1"><g class="bars"><g class="bar"><rect class="rect reactive tooltip-trigger" height="38.96820512820513" rx="0" ry="0" width="411.45146496378555" x="11.769230769230774" y="71.0928205128205" /><desc class="value">0.1621200087</desc><desc class="x centered">217.49496325112355</desc><desc class="y centered">90.57692307692307</desc></g></g></g><g class="series serie-0 color-0"><g class="bars"><g class="bar"><rect class="rect reactive tooltip-trigger" height="38.96820512820513" rx="0" ry="0" width="382.92307970547444" x="11.769230769230774" y="26.810769230769225" /><desc class="value">0.1508792611</desc><desc class="x centered">203.230770621968</desc><desc class="y centered">46.29487179487179</desc></g></g></g></g><g class="titles"><text class="title" x="474.0" y="380">1000000 iterations</text></g><g class="plot overlay" transform="translate(168, 20)"><g class="series serie-5 color-5" /><g class="series serie-4 color-4" /><g class="series serie-3 color-3" /><g class="series serie-2 color-2" /><g class="series serie-1 color-1" /><g class="series serie-0 color-0" /></g><g class="plot text-overlay" transform="translate(168, 20)"><g class="series serie-5 color-5"><text class="value" text-anchor="middle" x="306.0" y="273.0384615384615">0.2318654759</text></g><g class="series serie-4 color-4"><text class="value" text-anchor="middle" x="287.3375499348051" y="228.75641025641025">0.2171587276</text></g><g class="series serie-3 color-3"><text class="value" text-anchor="middle" x="245.5233284172472" y="184.47435897435898">0.1842074683</text></g><g class="series serie-2 color-2"><text class="value" text-anchor="middle" x="244.5738429249172" y="140.19230769230768">0.1834592362</text></g><g class="series serie-1 color-1"><text class="value" text-anchor="middle" x="217.49496325112355" y="95.9102564102564">0.1621200087</text></g><g class="series serie-0 color-0"><text class="value" text-anchor="middle" x="203.230770621968" y="51.628205128205124">0.1508792611</text></g></g><g class="plot tooltip-overlay" transform="translate(168, 20)"><g class="tooltip" style="opacity: 0" transform="translate(0 0)"><rect class="tooltip-box" height="0" rx="0" ry="0" width="0" /><g class="text" /></g></g><g class="legends" transform="translate(10, 30)"><g class="legend reactive activate-serie" id="activate-serie-0"><rect class="color-0 reactive" height="12" width="12" x="0.0" y="1.0" /><text x="17.0" y="11.2">default</text></g><g class="legend reactive activate-serie" id="activate-serie-1"><rect class="color-1 reactive" height="12" width="12" x="0.0" y="22.0" /><text x="17.0" y="32.2">direct</text></g><g class="legend reactive activate-serie" id="activate-serie-2"><rect class="color-2 reactive" height="12" width="12" x="0.0" y="43.0" /><text x="17.0" y="53.2">direct_default…</text><title>direct_default_2</title></g><g class="legend reactive activate-serie" id="activate-serie-3"><rect class="color-3 reactive" height="12" width="12" x="0.0" y="64.0" /><text x="17.0" y="74.2">mixed</text></g><g class="legend reactive activate-serie" id="activate-serie-4"><rect class="color-4 reactive" height="12" width="12" x="0.0" y="85.0" /><text x="17.0" y="95.2">kwargs</text></g><g class="legend reactive activate-serie" id="activate-serie-5"><rect class="color-5 reactive" height="12" width="12" x="0.0" y="106.0" /><text x="17.0" y="116.2">direct_default</text></g></g><g class="legends" transform="translate(790, 30)" /></g></svg>